(export (version D)
  (design
    (source /home/sebest/Documentos/PCB/Same70/same70/same70.sch)
    (date "lun 29 oct 2018 15:35:24 -03")
    (tool "Eeschema 5.0.0-fee4fd1~66~ubuntu16.04.1")
    (sheet (number 1) (name /) (tstamps /)
      (title_block
        (title)
        (company)
        (rev)
        (date 2018-10-28)
        (source same70.sch)
        (comment (number 1) (value ""))
        (comment (number 2) (value ""))
        (comment (number 3) (value ""))
        (comment (number 4) (value ""))))
    (sheet (number 2) (name /mCSame70/) (tstamps /5BFAFCDC/)
      (title_block
        (title)
        (company)
        (rev)
        (date)
        (source microsolo.sch)
        (comment (number 1) (value ""))
        (comment (number 2) (value ""))
        (comment (number 3) (value ""))
        (comment (number 4) (value "")))))
  (components
    (comp (ref J8)
      (value MAX11270)
      (footprint Package_SO:TSSOP-24_4.4x7.8mm_P0.65mm)
      (datasheet ~)
      (libsource (lib Connector_Generic) (part Conn_02x12_Counter_Clockwise) (description "Generic connector, double row, 02x12, counter clockwise pin numbering scheme (similar to DIP packge numbering), script generated (kicad-library-utils/schlib/autogen/connector/)"))
      (sheetpath (names /) (tstamps /))
      (tstamp 5BCF6A79))
    (comp (ref C23)
      (value 1uF)
      (footprint Capacitor_SMD:C_0805_2012Metric_Pad1.15x1.40mm_HandSolder)
      (datasheet ~)
      (libsource (lib Device) (part C) (description "Unpolarized capacitor"))
      (sheetpath (names /) (tstamps /))
      (tstamp 5BCF6FBC))
    (comp (ref L6)
      (value MMZ1608B601C)
      (footprint Inductor_SMD:L_0805_2012Metric_Pad1.15x1.40mm_HandSolder)
      (datasheet ~)
      (libsource (lib Device) (part L) (description Inductor))
      (sheetpath (names /) (tstamps /))
      (tstamp 5BCF706E))
    (comp (ref C24)
      (value 10nF)
      (footprint Capacitor_SMD:C_0805_2012Metric_Pad1.15x1.40mm_HandSolder)
      (datasheet ~)
      (libsource (lib Device) (part C) (description "Unpolarized capacitor"))
      (sheetpath (names /) (tstamps /))
      (tstamp 5BCF7B34))
    (comp (ref C31)
      (value 1uF)
      (footprint Capacitor_SMD:C_0805_2012Metric_Pad1.15x1.40mm_HandSolder)
      (datasheet ~)
      (libsource (lib Device) (part C) (description "Unpolarized capacitor"))
      (sheetpath (names /) (tstamps /))
      (tstamp 5BCF8A82))
    (comp (ref C30)
      (value 1uF)
      (footprint Capacitor_SMD:C_0805_2012Metric_Pad1.15x1.40mm_HandSolder)
      (datasheet ~)
      (libsource (lib Device) (part C) (description "Unpolarized capacitor"))
      (sheetpath (names /) (tstamps /))
      (tstamp 5BCF8B65))
    (comp (ref C29)
      (value 10nF)
      (footprint Capacitor_SMD:C_0805_2012Metric_Pad1.15x1.40mm_HandSolder)
      (datasheet ~)
      (libsource (lib Device) (part C) (description "Unpolarized capacitor"))
      (sheetpath (names /) (tstamps /))
      (tstamp 5BCFB7D8))
    (comp (ref C27)
      (value 10nF)
      (footprint Capacitor_SMD:C_0805_2012Metric_Pad1.15x1.40mm_HandSolder)
      (datasheet ~)
      (libsource (lib Device) (part C) (description "Unpolarized capacitor"))
      (sheetpath (names /) (tstamps /))
      (tstamp 5BCFC85C))
    (comp (ref J9)
      (value CeldaCarga)
      (footprint Connector_PinHeader_2.54mm:PinHeader_1x05_P2.54mm_Vertical)
      (datasheet ~)
      (libsource (lib Connector) (part Conn_01x05_Male) (description "Generic connector, single row, 01x05, script generated (kicad-library-utils/schlib/autogen/connector/)"))
      (sheetpath (names /) (tstamps /))
      (tstamp 5BCFF570))
    (comp (ref L7)
      (value L)
      (footprint Inductor_SMD:L_0805_2012Metric_Pad1.15x1.40mm_HandSolder)
      (datasheet ~)
      (libsource (lib Device) (part L) (description Inductor))
      (sheetpath (names /) (tstamps /))
      (tstamp 5BD00988))
    (comp (ref C25)
      (value 10pF)
      (footprint Capacitor_SMD:C_0805_2012Metric_Pad1.15x1.40mm_HandSolder)
      (datasheet ~)
      (libsource (lib Device) (part C) (description "Unpolarized capacitor"))
      (sheetpath (names /) (tstamps /))
      (tstamp 5BD04DD6))
    (comp (ref C26)
      (value 10pF)
      (footprint Capacitor_SMD:C_0805_2012Metric_Pad1.15x1.40mm_HandSolder)
      (datasheet ~)
      (libsource (lib Device) (part C) (description "Unpolarized capacitor"))
      (sheetpath (names /) (tstamps /))
      (tstamp 5BD04E42))
    (comp (ref R8)
      (value 100)
      (footprint Resistor_SMD:R_0805_2012Metric_Pad1.15x1.40mm_HandSolder)
      (datasheet ~)
      (libsource (lib Device) (part R) (description Resistor))
      (sheetpath (names /) (tstamps /))
      (tstamp 5BD04FB5))
    (comp (ref R9)
      (value 100)
      (footprint Resistor_SMD:R_0805_2012Metric_Pad1.15x1.40mm_HandSolder)
      (datasheet ~)
      (libsource (lib Device) (part R) (description Resistor))
      (sheetpath (names /) (tstamps /))
      (tstamp 5BD0503E))
    (comp (ref D4)
      (value D_Schottky_x2_Serial_ACK)
      (footprint Package_TO_SOT_SMD:SOT-23)
      (datasheet ~)
      (libsource (lib Device) (part D_Schottky_x2_Serial_ACK) (description "Dual schottky diode"))
      (sheetpath (names /) (tstamps /))
      (tstamp 5BD0836C))
    (comp (ref D5)
      (value D_Schottky_x2_Serial_ACK)
      (footprint Package_TO_SOT_SMD:SOT-23)
      (datasheet ~)
      (libsource (lib Device) (part D_Schottky_x2_Serial_ACK) (description "Dual schottky diode"))
      (sheetpath (names /) (tstamps /))
      (tstamp 5BD0BAA1))
    (comp (ref U4)
      (value 24LC1025)
      (footprint Package_SO:SOIJ-8_5.3x5.3mm_P1.27mm)
      (datasheet http://ww1.microchip.com/downloads/en/DeviceDoc/21941B.pdf)
      (libsource (lib Memory_EEPROM) (part 24LC1025) (description "I2C Serial EEPROM, 1024Kb, DIP-8/SOIC-8/TSSOP-8/DFN-8"))
      (sheetpath (names /) (tstamps /))
      (tstamp 5BD1432C))
    (comp (ref R7)
      (value 10k)
      (footprint Resistor_SMD:R_0805_2012Metric_Pad1.15x1.40mm_HandSolder)
      (datasheet ~)
      (libsource (lib Device) (part R) (description Resistor))
      (sheetpath (names /) (tstamps /))
      (tstamp 5BD16F20))
    (comp (ref JP4)
      (value SolderJumper_2_Bridged)
      (footprint Jumper:SolderJumper-2_P1.3mm_Bridged_RoundedPad1.0x1.5mm)
      (datasheet ~)
      (libsource (lib Jumper) (part SolderJumper_2_Bridged) (description "Solder Jumper, 2-pole, closed/bridged"))
      (sheetpath (names /) (tstamps /))
      (tstamp 5BD1E247))
    (comp (ref C28)
      (value 100nF)
      (footprint Capacitor_SMD:C_0805_2012Metric_Pad1.15x1.40mm_HandSolder)
      (datasheet ~)
      (libsource (lib Device) (part C) (description "Unpolarized capacitor"))
      (sheetpath (names /) (tstamps /))
      (tstamp 5BD22CBD))
    (comp (ref R10)
      (value 10k)
      (footprint Resistor_SMD:R_0805_2012Metric_Pad1.15x1.40mm_HandSolder)
      (datasheet ~)
      (libsource (lib Device) (part R) (description Resistor))
      (sheetpath (names /) (tstamps /))
      (tstamp 5BD29803))
    (comp (ref R11)
      (value 10k)
      (footprint Resistor_SMD:R_0805_2012Metric_Pad1.15x1.40mm_HandSolder)
      (datasheet ~)
      (libsource (lib Device) (part R) (description Resistor))
      (sheetpath (names /) (tstamps /))
      (tstamp 5BD2B361))
    (comp (ref L8)
      (value L)
      (footprint Inductor_SMD:L_0805_2012Metric_Pad1.15x1.40mm_HandSolder)
      (datasheet ~)
      (libsource (lib Device) (part L) (description Inductor))
      (sheetpath (names /) (tstamps /))
      (tstamp 5BD328A4))
    (comp (ref U1)
      (value SN65HVD230)
      (footprint Package_SO:SOIC-8_3.9x4.9mm_P1.27mm)
      (datasheet http://www.ti.com/lit/ds/symlink/sn65hvd230.pdf)
      (libsource (lib Interface_CAN_LIN) (part SN65HVD230) (description "CAN Bus Transceivers, 3.3V, 1Mbps, Low-Power capabilities, SOIC"))
      (sheetpath (names /) (tstamps /))
      (tstamp 5BD366DD))
    (comp (ref C14)
      (value 100nF)
      (footprint Capacitor_SMD:C_0805_2012Metric_Pad1.15x1.40mm_HandSolder)
      (datasheet ~)
      (libsource (lib Device) (part C) (description "Unpolarized capacitor"))
      (sheetpath (names /) (tstamps /))
      (tstamp 5BD3E5AB))
    (comp (ref J7)
      (value Conn_01x02_Male)
      (footprint Connector_PinHeader_2.54mm:PinHeader_1x02_P2.54mm_Vertical)
      (datasheet ~)
      (libsource (lib Connector) (part Conn_01x02_Male) (description "Generic connector, single row, 01x02, script generated (kicad-library-utils/schlib/autogen/connector/)"))
      (sheetpath (names /) (tstamps /))
      (tstamp 5BD40A58))
    (comp (ref R4)
      (value 120)
      (footprint Resistor_SMD:R_0805_2012Metric_Pad1.15x1.40mm_HandSolder)
      (datasheet ~)
      (libsource (lib Device) (part R) (description Resistor))
      (sheetpath (names /) (tstamps /))
      (tstamp 5BD454FF))
    (comp (ref JP3)
      (value SolderJumper_2_Bridged)
      (footprint Jumper:SolderJumper-2_P1.3mm_Bridged_RoundedPad1.0x1.5mm)
      (datasheet ~)
      (libsource (lib Jumper) (part SolderJumper_2_Bridged) (description "Solder Jumper, 2-pole, closed/bridged"))
      (sheetpath (names /) (tstamps /))
      (tstamp 5BD47B30))
    (comp (ref D3)
      (value NUP2105L)
      (footprint Package_TO_SOT_SMD:SOT-23)
      (datasheet http://www.onsemi.com/pub_link/Collateral/NUP2105L-D.PDF)
      (libsource (lib Power_Protection) (part NUP2105L) (description "Dual Line CAN Bus Protector, 24Vrwm"))
      (sheetpath (names /) (tstamps /))
      (tstamp 5BD4CF5C))
    (comp (ref R3)
      (value 10k)
      (footprint Resistor_SMD:R_0805_2012Metric_Pad1.15x1.40mm_HandSolder)
      (datasheet ~)
      (libsource (lib Device) (part R) (description Resistor))
      (sheetpath (names /) (tstamps /))
      (tstamp 5BD5E057))
    (comp (ref JP2)
      (value SolderJumper_2_Bridged)
      (footprint Jumper:SolderJumper-2_P1.3mm_Bridged_RoundedPad1.0x1.5mm)
      (datasheet ~)
      (libsource (lib Jumper) (part SolderJumper_2_Bridged) (description "Solder Jumper, 2-pole, closed/bridged"))
      (sheetpath (names /) (tstamps /))
      (tstamp 5BD61226))
    (comp (ref U3)
      (value LM317_3PinPackage)
      (footprint Package_TO_SOT_SMD:SOT-223)
      (datasheet http://www.ti.com/lit/ds/symlink/lm317.pdf)
      (libsource (lib Regulator_Linear) (part LM317_3PinPackage) (description "1A 35V Adjustable Linear Regulator, SOT-89/SOT-223/TO-220/TO-252/TO-263"))
      (sheetpath (names /) (tstamps /))
      (tstamp 5BD64C59))
    (comp (ref C19)
      (value 1uF)
      (footprint Capacitor_SMD:C_0805_2012Metric_Pad1.15x1.40mm_HandSolder)
      (datasheet ~)
      (libsource (lib Device) (part C) (description "Unpolarized capacitor"))
      (sheetpath (names /) (tstamps /))
      (tstamp 5BD6B9F9))
    (comp (ref R6)
      (value 330)
      (footprint Resistor_SMD:R_0805_2012Metric_Pad1.15x1.40mm_HandSolder)
      (datasheet ~)
      (libsource (lib Device) (part R) (description Resistor))
      (sheetpath (names /) (tstamps /))
      (tstamp 5BD6BC21))
    (comp (ref R5)
      (value 1k)
      (footprint Resistor_SMD:R_0805_2012Metric_Pad1.15x1.40mm_HandSolder)
      (datasheet ~)
      (libsource (lib Device) (part R) (description Resistor))
      (sheetpath (names /) (tstamps /))
      (tstamp 5BD6F557))
    (comp (ref J5)
      (value Conn_01x02_Male)
      (footprint Connector_PinHeader_2.54mm:PinHeader_1x02_P2.54mm_Vertical)
      (datasheet ~)
      (libsource (lib Connector) (part Conn_01x02_Male) (description "Generic connector, single row, 01x02, script generated (kicad-library-utils/schlib/autogen/connector/)"))
      (sheetpath (names /) (tstamps /))
      (tstamp 5BD76D16))
    (comp (ref D2)
      (value B240)
      (footprint Diode_SMD:D_SMB)
      (datasheet http://www.jameco.com/Jameco/Products/ProdDS/1538777.pdf)
      (libsource (lib Diode) (part B240) (description "40V 2A Schottky Barrier Rectifier Diode, SMB"))
      (sheetpath (names /) (tstamps /))
      (tstamp 5BD826E8))
    (comp (ref C13)
      (value C)
      (footprint Capacitor_SMD:C_0805_2012Metric_Pad1.15x1.40mm_HandSolder)
      (datasheet ~)
      (libsource (lib Device) (part C) (description "Unpolarized capacitor"))
      (sheetpath (names /) (tstamps /))
      (tstamp 5BD8A576))
    (comp (ref D1)
      (value D_TVS)
      (footprint Diode_SMD:D_0805_2012Metric_Castellated)
      (datasheet ~)
      (libsource (lib Device) (part D_TVS) (description "Bidirectional transient-voltage-suppression (TVS) diode"))
      (sheetpath (names /) (tstamps /))
      (tstamp 5BD8AB14))
    (comp (ref J4)
      (value Conn_01x05_Male)
      (footprint Connector_PinHeader_2.54mm:PinHeader_1x05_P2.54mm_Vertical)
      (datasheet ~)
      (libsource (lib Connector) (part Conn_01x05_Male) (description "Generic connector, single row, 01x05, script generated (kicad-library-utils/schlib/autogen/connector/)"))
      (sheetpath (names /) (tstamps /))
      (tstamp 5BDB1357))
    (comp (ref L2)
      (value L)
      (footprint Inductor_SMD:L_0805_2012Metric_Pad1.15x1.40mm_HandSolder)
      (datasheet ~)
      (libsource (lib Device) (part L) (description Inductor))
      (sheetpath (names /) (tstamps /))
      (tstamp 5BDBBA46))
    (comp (ref C4)
      (value 100nF)
      (footprint Capacitor_SMD:C_0805_2012Metric_Pad1.15x1.40mm_HandSolder)
      (datasheet ~)
      (libsource (lib Device) (part C) (description "Unpolarized capacitor"))
      (sheetpath (names /) (tstamps /))
      (tstamp 5BDC1107))
    (comp (ref L1)
      (value L)
      (footprint Inductor_SMD:L_0805_2012Metric_Pad1.15x1.40mm_HandSolder)
      (datasheet ~)
      (libsource (lib Device) (part L) (description Inductor))
      (sheetpath (names /) (tstamps /))
      (tstamp 5BDC12E2))
    (comp (ref L4)
      (value L)
      (footprint Inductor_SMD:L_0805_2012Metric_Pad1.15x1.40mm_HandSolder)
      (datasheet ~)
      (libsource (lib Device) (part L) (description Inductor))
      (sheetpath (names /) (tstamps /))
      (tstamp 5BDCC07F))
    (comp (ref C2)
      (value C)
      (footprint Capacitor_SMD:C_0805_2012Metric_Pad1.15x1.40mm_HandSolder)
      (datasheet ~)
      (libsource (lib Device) (part C) (description "Unpolarized capacitor"))
      (sheetpath (names /) (tstamps /))
      (tstamp 5BDD1A09))
    (comp (ref J2)
      (value Conn_02x05_Odd_Even)
      (footprint Connector_PinHeader_2.54mm:PinHeader_2x05_P2.54mm_Vertical)
      (datasheet ~)
      (libsource (lib Connector_Generic) (part Conn_02x05_Odd_Even) (description "Generic connector, double row, 02x05, odd/even pin numbering scheme (row 1 odd numbers, row 2 even numbers), script generated (kicad-library-utils/schlib/autogen/connector/)"))
      (sheetpath (names /) (tstamps /))
      (tstamp 5BDE316D))
    (comp (ref J3)
      (value Conn_02x06_Odd_Even)
      (footprint Connector_PinSocket_2.54mm:PinSocket_2x06_P2.54mm_Vertical)
      (datasheet ~)
      (libsource (lib Connector_Generic) (part Conn_02x06_Odd_Even) (description "Generic connector, double row, 02x06, odd/even pin numbering scheme (row 1 odd numbers, row 2 even numbers), script generated (kicad-library-utils/schlib/autogen/connector/)"))
      (sheetpath (names /) (tstamps /))
      (tstamp 5BDE3A78))
    (comp (ref R1)
      (value 1k8)
      (footprint Resistor_SMD:R_0805_2012Metric_Pad1.15x1.40mm_HandSolder)
      (datasheet ~)
      (libsource (lib Device) (part R) (description Resistor))
      (sheetpath (names /) (tstamps /))
      (tstamp 5BDE444C))
    (comp (ref R2)
      (value 3k3)
      (footprint Resistor_SMD:R_0805_2012Metric_Pad1.15x1.40mm_HandSolder)
      (datasheet ~)
      (libsource (lib Device) (part R) (description Resistor))
      (sheetpath (names /) (tstamps /))
      (tstamp 5BDE4520))
    (comp (ref JP1)
      (value SolderJumper_2_Bridged)
      (footprint Jumper:SolderJumper-2_P1.3mm_Bridged_RoundedPad1.0x1.5mm)
      (datasheet ~)
      (libsource (lib Jumper) (part SolderJumper_2_Bridged) (description "Solder Jumper, 2-pole, closed/bridged"))
      (sheetpath (names /) (tstamps /))
      (tstamp 5BDEFE89))
    (comp (ref J6)
      (value Conn_02x05_Odd_Even)
      (footprint Connector_PinHeader_2.54mm:PinHeader_2x05_P2.54mm_Vertical)
      (datasheet ~)
      (libsource (lib Connector_Generic) (part Conn_02x05_Odd_Even) (description "Generic connector, double row, 02x05, odd/even pin numbering scheme (row 1 odd numbers, row 2 even numbers), script generated (kicad-library-utils/schlib/autogen/connector/)"))
      (sheetpath (names /) (tstamps /))
      (tstamp 5BE0E76E))
    (comp (ref C15)
      (value 100nF)
      (footprint Capacitor_SMD:C_0805_2012Metric_Pad1.15x1.40mm_HandSolder)
      (datasheet ~)
      (libsource (lib Device) (part C) (description "Unpolarized capacitor"))
      (sheetpath (names /) (tstamps /))
      (tstamp 5BE4B3BF))
    (comp (ref C12)
      (value 100nF)
      (footprint Capacitor_SMD:C_0805_2012Metric_Pad1.15x1.40mm_HandSolder)
      (datasheet ~)
      (libsource (lib Device) (part C) (description "Unpolarized capacitor"))
      (sheetpath (names /) (tstamps /))
      (tstamp 5BE4B4BF))
    (comp (ref C10)
      (value 100nF)
      (footprint Capacitor_SMD:C_0805_2012Metric_Pad1.15x1.40mm_HandSolder)
      (datasheet ~)
      (libsource (lib Device) (part C) (description "Unpolarized capacitor"))
      (sheetpath (names /) (tstamps /))
      (tstamp 5BE4B5A2))
    (comp (ref C9)
      (value 100uF)
      (footprint Capacitor_SMD:CP_Elec_4x5.3)
      (datasheet ~)
      (libsource (lib Device) (part CP) (description "Polarised capacitor"))
      (sheetpath (names /) (tstamps /))
      (tstamp 5BE4B695))
    (comp (ref C7)
      (value 100nF)
      (footprint Capacitor_SMD:C_0805_2012Metric_Pad1.15x1.40mm_HandSolder)
      (datasheet ~)
      (libsource (lib Device) (part C) (description "Unpolarized capacitor"))
      (sheetpath (names /) (tstamps /))
      (tstamp 5BE7F2CF))
    (comp (ref C6)
      (value 100nF)
      (footprint Capacitor_SMD:C_0805_2012Metric_Pad1.15x1.40mm_HandSolder)
      (datasheet ~)
      (libsource (lib Device) (part C) (description "Unpolarized capacitor"))
      (sheetpath (names /) (tstamps /))
      (tstamp 5BE7F3C7))
    (comp (ref C22)
      (value 100nF)
      (footprint Capacitor_SMD:C_0805_2012Metric_Pad1.15x1.40mm_HandSolder)
      (datasheet ~)
      (libsource (lib Device) (part C) (description "Unpolarized capacitor"))
      (sheetpath (names /) (tstamps /))
      (tstamp 5BEAB05E))
    (comp (ref C21)
      (value 100nF)
      (footprint Capacitor_SMD:C_0805_2012Metric_Pad1.15x1.40mm_HandSolder)
      (datasheet ~)
      (libsource (lib Device) (part C) (description "Unpolarized capacitor"))
      (sheetpath (names /) (tstamps /))
      (tstamp 5BEAB164))
    (comp (ref C20)
      (value 100nF)
      (footprint Capacitor_SMD:C_0805_2012Metric_Pad1.15x1.40mm_HandSolder)
      (datasheet ~)
      (libsource (lib Device) (part C) (description "Unpolarized capacitor"))
      (sheetpath (names /) (tstamps /))
      (tstamp 5BEAB253))
    (comp (ref C18)
      (value 100nF)
      (footprint Capacitor_SMD:C_0805_2012Metric_Pad1.15x1.40mm_HandSolder)
      (datasheet ~)
      (libsource (lib Device) (part C) (description "Unpolarized capacitor"))
      (sheetpath (names /) (tstamps /))
      (tstamp 5BEAB353))
    (comp (ref C5)
      (value 100nF)
      (footprint Capacitor_SMD:C_0805_2012Metric_Pad1.15x1.40mm_HandSolder)
      (datasheet ~)
      (libsource (lib Device) (part C) (description "Unpolarized capacitor"))
      (sheetpath (names /) (tstamps /))
      (tstamp 5BEFB0A1))
    (comp (ref C1)
      (value 100nF)
      (footprint Capacitor_SMD:C_0805_2012Metric_Pad1.15x1.40mm_HandSolder)
      (datasheet ~)
      (libsource (lib Device) (part C) (description "Unpolarized capacitor"))
      (sheetpath (names /) (tstamps /))
      (tstamp 5BEFB0A8))
    (comp (ref C8)
      (value 100nF)
      (footprint Capacitor_SMD:C_0805_2012Metric_Pad1.15x1.40mm_HandSolder)
      (datasheet ~)
      (libsource (lib Device) (part C) (description "Unpolarized capacitor"))
      (sheetpath (names /) (tstamps /))
      (tstamp 5BF29A73))
    (comp (ref L5)
      (value L)
      (footprint Inductor_SMD:L_0805_2012Metric_Pad1.15x1.40mm_HandSolder)
      (datasheet ~)
      (libsource (lib Device) (part L) (description Inductor))
      (sheetpath (names /) (tstamps /))
      (tstamp 5BF3BC00))
    (comp (ref C3)
      (value 100nF)
      (footprint Capacitor_SMD:C_0805_2012Metric_Pad1.15x1.40mm_HandSolder)
      (datasheet ~)
      (libsource (lib Device) (part C) (description "Unpolarized capacitor"))
      (sheetpath (names /) (tstamps /))
      (tstamp 5BF4EDD1))
    (comp (ref L3)
      (value L)
      (footprint Inductor_SMD:L_0805_2012Metric_Pad1.15x1.40mm_HandSolder)
      (datasheet ~)
      (libsource (lib Device) (part L) (description Inductor))
      (sheetpath (names /) (tstamps /))
      (tstamp 5BF4EDE0))
    (comp (ref U5)
      (value ATSAME70N21A-AN)
      (footprint Package_QFP:LQFP-100_14x14mm_P0.5mm)
      (datasheet http://ww1.microchip.com/downloads/en/DeviceDoc/Atmel-11296-32-bit-Cortex-M7-Microcontroller-SAM-E70Q-SAM-E70N-SAM-E70J_Datasheet.pdf)
      (libsource (lib MCU_Microchip_SAME) (part ATSAME70N21A-AN) (description "SAM E70 Microchip SMART ARM Cortex-M7-based MCU, 2048K Flash, 384K SRAM, LQFP100"))
      (sheetpath (names /mCSame70/) (tstamps /5BFAFCDC/))
      (tstamp 5BFB06E9))
    (comp (ref Y1)
      (value Crystal)
      (footprint Crystal:Crystal_HC18-U_Vertical)
      (datasheet ~)
      (libsource (lib Device) (part Crystal) (description "Two pin crystal"))
      (sheetpath (names /mCSame70/) (tstamps /5BFAFCDC/))
      (tstamp 5BFB0E2A))
    (comp (ref C32)
      (value 12pF)
      (footprint Capacitor_SMD:C_0805_2012Metric_Pad1.15x1.40mm_HandSolder)
      (datasheet ~)
      (libsource (lib Device) (part C) (description "Unpolarized capacitor"))
      (sheetpath (names /mCSame70/) (tstamps /5BFAFCDC/))
      (tstamp 5BFB0E95))
    (comp (ref C33)
      (value 12pF)
      (footprint Capacitor_SMD:C_0805_2012Metric_Pad1.15x1.40mm_HandSolder)
      (datasheet ~)
      (libsource (lib Device) (part C) (description "Unpolarized capacitor"))
      (sheetpath (names /mCSame70/) (tstamps /5BFAFCDC/))
      (tstamp 5BFB0F00)))
  (libparts
    (libpart (lib Connector) (part Conn_01x02_Male)
      (description "Generic connector, single row, 01x02, script generated (kicad-library-utils/schlib/autogen/connector/)")
      (docs ~)
      (footprints
        (fp Connector*:*_1x??_*))
      (fields
        (field (name Reference) J)
        (field (name Value) Conn_01x02_Male))
      (pins
        (pin (num 1) (name Pin_1) (type passive))
        (pin (num 2) (name Pin_2) (type passive))))
    (libpart (lib Connector) (part Conn_01x05_Male)
      (description "Generic connector, single row, 01x05, script generated (kicad-library-utils/schlib/autogen/connector/)")
      (docs ~)
      (footprints
        (fp Connector*:*_1x??_*))
      (fields
        (field (name Reference) J)
        (field (name Value) Conn_01x05_Male))
      (pins
        (pin (num 1) (name Pin_1) (type passive))
        (pin (num 2) (name Pin_2) (type passive))
        (pin (num 3) (name Pin_3) (type passive))
        (pin (num 4) (name Pin_4) (type passive))
        (pin (num 5) (name Pin_5) (type passive))))
    (libpart (lib Connector_Generic) (part Conn_02x05_Odd_Even)
      (description "Generic connector, double row, 02x05, odd/even pin numbering scheme (row 1 odd numbers, row 2 even numbers), script generated (kicad-library-utils/schlib/autogen/connector/)")
      (docs ~)
      (footprints
        (fp Connector*:*_2x??_*))
      (fields
        (field (name Reference) J)
        (field (name Value) Conn_02x05_Odd_Even))
      (pins
        (pin (num 1) (name Pin_1) (type passive))
        (pin (num 2) (name Pin_2) (type passive))
        (pin (num 3) (name Pin_3) (type passive))
        (pin (num 4) (name Pin_4) (type passive))
        (pin (num 5) (name Pin_5) (type passive))
        (pin (num 6) (name Pin_6) (type passive))
        (pin (num 7) (name Pin_7) (type passive))
        (pin (num 8) (name Pin_8) (type passive))
        (pin (num 9) (name Pin_9) (type passive))
        (pin (num 10) (name Pin_10) (type passive))))
    (libpart (lib Connector_Generic) (part Conn_02x06_Odd_Even)
      (description "Generic connector, double row, 02x06, odd/even pin numbering scheme (row 1 odd numbers, row 2 even numbers), script generated (kicad-library-utils/schlib/autogen/connector/)")
      (docs ~)
      (footprints
        (fp Connector*:*_2x??_*))
      (fields
        (field (name Reference) J)
        (field (name Value) Conn_02x06_Odd_Even))
      (pins
        (pin (num 1) (name Pin_1) (type passive))
        (pin (num 2) (name Pin_2) (type passive))
        (pin (num 3) (name Pin_3) (type passive))
        (pin (num 4) (name Pin_4) (type passive))
        (pin (num 5) (name Pin_5) (type passive))
        (pin (num 6) (name Pin_6) (type passive))
        (pin (num 7) (name Pin_7) (type passive))
        (pin (num 8) (name Pin_8) (type passive))
        (pin (num 9) (name Pin_9) (type passive))
        (pin (num 10) (name Pin_10) (type passive))
        (pin (num 11) (name Pin_11) (type passive))
        (pin (num 12) (name Pin_12) (type passive))))
    (libpart (lib Connector_Generic) (part Conn_02x12_Counter_Clockwise)
      (description "Generic connector, double row, 02x12, counter clockwise pin numbering scheme (similar to DIP packge numbering), script generated (kicad-library-utils/schlib/autogen/connector/)")
      (docs ~)
      (footprints
        (fp Connector*:*_2x??_*))
      (fields
        (field (name Reference) J)
        (field (name Value) Conn_02x12_Counter_Clockwise))
      (pins
        (pin (num 1) (name Pin_1) (type passive))
        (pin (num 2) (name Pin_2) (type passive))
        (pin (num 3) (name Pin_3) (type passive))
        (pin (num 4) (name Pin_4) (type passive))
        (pin (num 5) (name Pin_5) (type passive))
        (pin (num 6) (name Pin_6) (type passive))
        (pin (num 7) (name Pin_7) (type passive))
        (pin (num 8) (name Pin_8) (type passive))
        (pin (num 9) (name Pin_9) (type passive))
        (pin (num 10) (name Pin_10) (type passive))
        (pin (num 11) (name Pin_11) (type passive))
        (pin (num 12) (name Pin_12) (type passive))
        (pin (num 13) (name Pin_13) (type passive))
        (pin (num 14) (name Pin_14) (type passive))
        (pin (num 15) (name Pin_15) (type passive))
        (pin (num 16) (name Pin_16) (type passive))
        (pin (num 17) (name Pin_17) (type passive))
        (pin (num 18) (name Pin_18) (type passive))
        (pin (num 19) (name Pin_19) (type passive))
        (pin (num 20) (name Pin_20) (type passive))
        (pin (num 21) (name Pin_21) (type passive))
        (pin (num 22) (name Pin_22) (type passive))
        (pin (num 23) (name Pin_23) (type passive))
        (pin (num 24) (name Pin_24) (type passive))))
    (libpart (lib Device) (part C)
      (description "Unpolarized capacitor")
      (docs ~)
      (footprints
        (fp C_*))
      (fields
        (field (name Reference) C)
        (field (name Value) C))
      (pins
        (pin (num 1) (name ~) (type passive))
        (pin (num 2) (name ~) (type passive))))
    (libpart (lib Device) (part CP)
      (description "Polarised capacitor")
      (docs ~)
      (footprints
        (fp CP_*))
      (fields
        (field (name Reference) C)
        (field (name Value) CP))
      (pins
        (pin (num 1) (name ~) (type passive))
        (pin (num 2) (name ~) (type passive))))
    (libpart (lib Device) (part Crystal)
      (description "Two pin crystal")
      (docs ~)
      (footprints
        (fp Crystal*))
      (fields
        (field (name Reference) Y)
        (field (name Value) Crystal))
      (pins
        (pin (num 1) (name 1) (type passive))
        (pin (num 2) (name 2) (type passive))))
    (libpart (lib Device) (part D_Schottky_x2_Serial_ACK)
      (description "Dual schottky diode")
      (docs ~)
      (fields
        (field (name Reference) D)
        (field (name Value) D_Schottky_x2_Serial_ACK))
      (pins
        (pin (num 1) (name A) (type passive))
        (pin (num 2) (name common) (type passive))
        (pin (num 3) (name K) (type passive))))
    (libpart (lib Device) (part D_TVS)
      (description "Bidirectional transient-voltage-suppression (TVS) diode")
      (docs ~)
      (footprints
        (fp TO-???*)
        (fp *_Diode_*)
        (fp *SingleDiode*)
        (fp D_*))
      (fields
        (field (name Reference) D)
        (field (name Value) D_TVS))
      (pins
        (pin (num 1) (name A1) (type passive))
        (pin (num 2) (name A2) (type passive))))
    (libpart (lib Device) (part L)
      (description Inductor)
      (docs ~)
      (footprints
        (fp Choke_*)
        (fp *Coil*)
        (fp Inductor_*)
        (fp L_*))
      (fields
        (field (name Reference) L)
        (field (name Value) L))
      (pins
        (pin (num 1) (name 1) (type passive))
        (pin (num 2) (name 2) (type passive))))
    (libpart (lib Device) (part R)
      (description Resistor)
      (docs ~)
      (footprints
        (fp R_*))
      (fields
        (field (name Reference) R)
        (field (name Value) R))
      (pins
        (pin (num 1) (name ~) (type passive))
        (pin (num 2) (name ~) (type passive))))
    (libpart (lib Diode) (part B220)
      (aliases
        (alias B230)
        (alias B240)
        (alias B250)
        (alias B260))
      (description "20V 2A Schottky Barrier Rectifier Diode, SMB")
      (docs http://www.jameco.com/Jameco/Products/ProdDS/1538777.pdf)
      (footprints
        (fp D*SMB*))
      (fields
        (field (name Reference) D)
        (field (name Value) B220)
        (field (name Footprint) Diode_SMD:D_SMB))
      (pins
        (pin (num 1) (name K) (type passive))
        (pin (num 2) (name A) (type passive))))
    (libpart (lib Interface_CAN_LIN) (part SN65HVD230)
      (aliases
        (alias SN65HVD231))
      (description "CAN Bus Transceivers, 3.3V, 1Mbps, Low-Power capabilities, SOIC")
      (docs http://www.ti.com/lit/ds/symlink/sn65hvd230.pdf)
      (footprints
        (fp SOIC*3.9x4.9mm*P1.27mm*))
      (fields
        (field (name Reference) U)
        (field (name Value) SN65HVD230)
        (field (name Footprint) Package_SO:SOIC-8_3.9x4.9mm_P1.27mm))
      (pins
        (pin (num 1) (name D) (type input))
        (pin (num 2) (name GND) (type power_in))
        (pin (num 3) (name VCC) (type power_in))
        (pin (num 4) (name R) (type output))
        (pin (num 5) (name Vref) (type output))
        (pin (num 6) (name CANL) (type BiDi))
        (pin (num 7) (name CANH) (type BiDi))
        (pin (num 8) (name Rs) (type input))))
    (libpart (lib Jumper) (part SolderJumper_2_Bridged)
      (description "Solder Jumper, 2-pole, closed/bridged")
      (docs ~)
      (footprints
        (fp SolderJumper*Bridged*))
      (fields
        (field (name Reference) JP)
        (field (name Value) SolderJumper_2_Bridged))
      (pins
        (pin (num 1) (name A) (type passive))
        (pin (num 2) (name B) (type passive))))
    (libpart (lib MCU_Microchip_SAME) (part ATSAME70N21A-AN)
      (aliases
        (alias ATSAME70N20A-AN)
        (alias ATSAME70N19A-AN))
      (description "SAM E70 Microchip SMART ARM Cortex-M7-based MCU, 2048K Flash, 384K SRAM, LQFP100")
      (docs http://ww1.microchip.com/downloads/en/DeviceDoc/Atmel-11296-32-bit-Cortex-M7-Microcontroller-SAM-E70Q-SAM-E70N-SAM-E70J_Datasheet.pdf)
      (footprints
        (fp LQFP*14x14mm*P0.5mm*))
      (fields
        (field (name Reference) U)
        (field (name Value) ATSAME70N21A-AN)
        (field (name Footprint) Package_QFP:LQFP-100_14x14mm_P0.5mm))
      (pins
        (pin (num 1) (name PD0) (type BiDi))
        (pin (num 2) (name PD31) (type BiDi))
        (pin (num 3) (name GND) (type power_in))
        (pin (num 4) (name VDDOUT) (type power_in))
        (pin (num 5) (name VDDIN) (type power_in))
        (pin (num 6) (name VREFN) (type input))
        (pin (num 7) (name GND) (type passive))
        (pin (num 8) (name GND) (type passive))
        (pin (num 9) (name VREFP) (type input))
        (pin (num 10) (name GND) (type passive))
        (pin (num 11) (name PB1) (type BiDi))
        (pin (num 12) (name PB0) (type BiDi))
        (pin (num 13) (name PA20) (type BiDi))
        (pin (num 14) (name PA19) (type BiDi))
        (pin (num 15) (name PA18) (type BiDi))
        (pin (num 16) (name PA17) (type BiDi))
        (pin (num 17) (name PB2) (type BiDi))
        (pin (num 18) (name VDDCORE) (type power_in))
        (pin (num 19) (name VDDIO) (type power_in))
        (pin (num 20) (name PB3) (type BiDi))
        (pin (num 21) (name PA21) (type BiDi))
        (pin (num 22) (name VDDCORE) (type passive))
        (pin (num 23) (name PD30) (type BiDi))
        (pin (num 24) (name PA7) (type BiDi))
        (pin (num 25) (name PA8) (type BiDi))
        (pin (num 26) (name PA22) (type BiDi))
        (pin (num 27) (name PA13) (type BiDi))
        (pin (num 28) (name VDDIO) (type passive))
        (pin (num 29) (name GND) (type passive))
        (pin (num 30) (name PA16) (type BiDi))
        (pin (num 31) (name PA23) (type BiDi))
        (pin (num 32) (name PD27) (type BiDi))
        (pin (num 33) (name PA15) (type BiDi))
        (pin (num 34) (name PA14) (type BiDi))
        (pin (num 35) (name PD25) (type BiDi))
        (pin (num 36) (name PD26) (type BiDi))
        (pin (num 37) (name PD24) (type BiDi))
        (pin (num 38) (name PA24) (type BiDi))
        (pin (num 39) (name VDDCORE) (type passive))
        (pin (num 40) (name PA25) (type BiDi))
        (pin (num 41) (name PD22) (type BiDi))
        (pin (num 42) (name PA26) (type BiDi))
        (pin (num 43) (name PD21) (type BiDi))
        (pin (num 44) (name PA11) (type BiDi))
        (pin (num 45) (name PD20) (type BiDi))
        (pin (num 46) (name PA10) (type BiDi))
        (pin (num 47) (name PD19) (type BiDi))
        (pin (num 48) (name PA12) (type BiDi))
        (pin (num 49) (name PD18) (type BiDi))
        (pin (num 50) (name PA27) (type BiDi))
        (pin (num 51) (name PD28) (type BiDi))
        (pin (num 52) (name PA5) (type BiDi))
        (pin (num 53) (name PD17) (type BiDi))
        (pin (num 54) (name PA9) (type BiDi))
        (pin (num 55) (name PA4) (type BiDi))
        (pin (num 56) (name PD16) (type BiDi))
        (pin (num 57) (name PB6) (type BiDi))
        (pin (num 58) (name NRST) (type BiDi))
        (pin (num 59) (name PD14) (type BiDi))
        (pin (num 60) (name TST) (type input))
        (pin (num 61) (name PB12) (type BiDi))
        (pin (num 62) (name PD13) (type BiDi))
        (pin (num 63) (name PB7) (type BiDi))
        (pin (num 64) (name PA3) (type BiDi))
        (pin (num 65) (name PD12) (type BiDi))
        (pin (num 66) (name PA2) (type BiDi))
        (pin (num 67) (name GND) (type passive))
        (pin (num 68) (name VDDIO) (type passive))
        (pin (num 69) (name PD11) (type BiDi))
        (pin (num 70) (name PA1) (type BiDi))
        (pin (num 71) (name PD10) (type BiDi))
        (pin (num 72) (name PA0) (type BiDi))
        (pin (num 73) (name JTAGSEL) (type input))
        (pin (num 74) (name PB4) (type BiDi))
        (pin (num 75) (name PD15) (type BiDi))
        (pin (num 76) (name VDDCORE) (type passive))
        (pin (num 77) (name PB5) (type BiDi))
        (pin (num 78) (name PD9) (type BiDi))
        (pin (num 79) (name PA28) (type BiDi))
        (pin (num 80) (name PD8) (type BiDi))
        (pin (num 81) (name VDDIO) (type passive))
        (pin (num 82) (name PA30) (type BiDi))
        (pin (num 83) (name PA31) (type BiDi))
        (pin (num 84) (name PD7) (type BiDi))
        (pin (num 85) (name PD6) (type BiDi))
        (pin (num 86) (name VDDPLL) (type power_in))
        (pin (num 87) (name PD5) (type BiDi))
        (pin (num 88) (name PD4) (type BiDi))
        (pin (num 89) (name PD3) (type BiDi))
        (pin (num 90) (name VDDPLLUSB) (type power_in))
        (pin (num 91) (name PD2) (type BiDi))
        (pin (num 92) (name PD1) (type BiDi))
        (pin (num 93) (name VDDUTMII) (type power_in))
        (pin (num 94) (name HSDM) (type BiDi))
        (pin (num 95) (name HSDP) (type BiDi))
        (pin (num 96) (name VDDUTMIC) (type power_in))
        (pin (num 97) (name VBG) (type input))
        (pin (num 98) (name PB8) (type BiDi))
        (pin (num 99) (name PB9) (type BiDi))
        (pin (num 100) (name PB13) (type BiDi))))
    (libpart (lib Memory_EEPROM) (part 24LC16)
      (aliases
        (alias 24LC02)
        (alias 24LC00)
        (alias 24LC04)
        (alias 24LC08)
        (alias 24LC01)
        (alias 24LC512)
        (alias 24LC64)
        (alias 24LC1025)
        (alias 24LC32)
        (alias 24LC256)
        (alias 24LC128)
        (alias CAT24C256))
      (description "I2C Serial EEPROM, 16Kb, DIP-8/SOIC-8/TSSOP-8/DFN-8")
      (docs http://ww1.microchip.com/downloads/en/DeviceDoc/21703d.pdf)
      (footprints
        (fp DIP*W7.62mm*)
        (fp SOIC*3.9x4.9mm*)
        (fp TSSOP*4.4x3mm*P0.65mm*)
        (fp DFN*3x2mm*P0.5mm*))
      (fields
        (field (name Reference) U)
        (field (name Value) 24LC16))
      (pins
        (pin (num 1) (name A0) (type input))
        (pin (num 2) (name A1) (type input))
        (pin (num 3) (name A2) (type input))
        (pin (num 4) (name GND) (type power_in))
        (pin (num 5) (name SDA) (type BiDi))
        (pin (num 6) (name SCL) (type input))
        (pin (num 7) (name WP) (type input))
        (pin (num 8) (name VCC) (type power_in))))
    (libpart (lib Power_Protection) (part NUP2105L)
      (aliases
        (alias SZNUP2105L))
      (description "Dual Line CAN Bus Protector, 24Vrwm")
      (docs http://www.onsemi.com/pub_link/Collateral/NUP2105L-D.PDF)
      (footprints
        (fp SOT?23*))
      (fields
        (field (name Reference) D)
        (field (name Value) NUP2105L)
        (field (name Footprint) Package_TO_SOT_SMD:SOT-23))
      (pins
        (pin (num 1) (name K) (type input))
        (pin (num 2) (name K) (type input))
        (pin (num 3) (name A) (type input))))
    (libpart (lib Regulator_Linear) (part LM317_3PinPackage)
      (aliases
        (alias AZ1117-ADJ))
      (description "1A 35V Adjustable Linear Regulator, SOT-89/SOT-223/TO-220/TO-252/TO-263")
      (docs http://www.ti.com/lit/ds/symlink/lm317.pdf)
      (footprints
        (fp SOT?223*)
        (fp SOT?89*)
        (fp TO?220*)
        (fp TO?252*)
        (fp TO?263*))
      (fields
        (field (name Reference) U)
        (field (name Value) LM317_3PinPackage))
      (pins
        (pin (num 1) (name ADJ) (type input))
        (pin (num 2) (name VO) (type power_out))
        (pin (num 3) (name VI) (type power_in)))))
  (libraries
    (library (logical Connector)
      (uri /usr/share/kicad/library/Connector.lib))
    (library (logical Connector_Generic)
      (uri /usr/share/kicad/library/Connector_Generic.lib))
    (library (logical Device)
      (uri /usr/share/kicad/library/Device.lib))
    (library (logical Diode)
      (uri /usr/share/kicad/library/Diode.lib))
    (library (logical Interface_CAN_LIN)
      (uri /usr/share/kicad/library/Interface_CAN_LIN.lib))
    (library (logical Jumper)
      (uri /usr/share/kicad/library/Jumper.lib))
    (library (logical MCU_Microchip_SAME)
      (uri /usr/share/kicad/library/MCU_Microchip_SAME.lib))
    (library (logical Memory_EEPROM)
      (uri /usr/share/kicad/library/Memory_EEPROM.lib))
    (library (logical Power_Protection)
      (uri /usr/share/kicad/library/Power_Protection.lib))
    (library (logical Regulator_Linear)
      (uri /usr/share/kicad/library/Regulator_Linear.lib)))
  (nets
    (net (code 1) (name +5V)
      (node (ref U3) (pin 2))
      (node (ref J3) (pin 11))
      (node (ref L1) (pin 1))
      (node (ref C19) (pin 1))
      (node (ref R6) (pin 1))
      (node (ref L7) (pin 1)))
    (net (code 2) (name GND)
      (node (ref C4) (pin 2))
      (node (ref C6) (pin 2))
      (node (ref C7) (pin 2))
      (node (ref C28) (pin 1))
      (node (ref C31) (pin 2))
      (node (ref U1) (pin 2))
      (node (ref C8) (pin 2))
      (node (ref L2) (pin 1))
      (node (ref U5) (pin 29))
      (node (ref C14) (pin 1))
      (node (ref R3) (pin 2))
      (node (ref J5) (pin 1))
      (node (ref R5) (pin 2))
      (node (ref R2) (pin 2))
      (node (ref C19) (pin 2))
      (node (ref C22) (pin 2))
      (node (ref U4) (pin 7))
      (node (ref D3) (pin 3))
      (node (ref L8) (pin 1))
      (node (ref U4) (pin 4))
      (node (ref U4) (pin 2))
      (node (ref U4) (pin 1))
      (node (ref JP4) (pin 1))
      (node (ref C2) (pin 2))
      (node (ref C18) (pin 2))
      (node (ref C20) (pin 2))
      (node (ref C21) (pin 2))
      (node (ref C1) (pin 2))
      (node (ref U5) (pin 3))
      (node (ref U5) (pin 6))
      (node (ref U5) (pin 7))
      (node (ref C9) (pin 2))
      (node (ref U5) (pin 67))
      (node (ref C15) (pin 2))
      (node (ref C10) (pin 2))
      (node (ref C12) (pin 2))
      (node (ref C3) (pin 2))
      (node (ref J8) (pin 19))
      (node (ref C5) (pin 2))
      (node (ref J8) (pin 20))
      (node (ref C13) (pin 2))
      (node (ref C32) (pin 1))
      (node (ref C33) (pin 1))
      (node (ref D1) (pin 2))
      (node (ref J9) (pin 5))
      (node (ref J3) (pin 12))
      (node (ref U5) (pin 10))
      (node (ref J8) (pin 3))
      (node (ref U5) (pin 8))
      (node (ref C30) (pin 2))
      (node (ref J6) (pin 2))
      (node (ref J6) (pin 10)))
    (net (code 3) (name "Net-(J3-Pad9)")
      (node (ref JP1) (pin 2))
      (node (ref R1) (pin 1))
      (node (ref J3) (pin 9)))
    (net (code 4) (name 63)
      (node (ref J6) (pin 1))
      (node (ref U5) (pin 63)))
    (net (code 5) (name 72)
      (node (ref J3) (pin 3))
      (node (ref U5) (pin 72)))
    (net (code 6) (name 47)
      (node (ref J2) (pin 6))
      (node (ref U5) (pin 47)))
    (net (code 7) (name 49)
      (node (ref U5) (pin 49))
      (node (ref J2) (pin 7)))
    (net (code 8) (name 50)
      (node (ref U5) (pin 50))
      (node (ref J2) (pin 8)))
    (net (code 9) (name 51)
      (node (ref J2) (pin 9))
      (node (ref U5) (pin 51)))
    (net (code 10) (name 70)
      (node (ref J3) (pin 1))
      (node (ref U5) (pin 70)))
    (net (code 11) (name 75)
      (node (ref U5) (pin 75))
      (node (ref J3) (pin 10)))
    (net (code 12) (name 69)
      (node (ref U5) (pin 69))
      (node (ref J3) (pin 2)))
    (net (code 13) (name 87)
      (node (ref J6) (pin 3))
      (node (ref U5) (pin 87)))
    (net (code 14) (name 71)
      (node (ref U5) (pin 71))
      (node (ref J3) (pin 4)))
    (net (code 15) (name 79)
      (node (ref J3) (pin 5))
      (node (ref U5) (pin 79)))
    (net (code 16) (name 80)
      (node (ref U5) (pin 80))
      (node (ref J3) (pin 6)))
    (net (code 17) (name TXD0)
      (node (ref U5) (pin 11))
      (node (ref J3) (pin 7)))
    (net (code 18) (name 78)
      (node (ref U5) (pin 78))
      (node (ref J3) (pin 8)))
    (net (code 19) (name +3V3)
      (node (ref U5) (pin 68))
      (node (ref J8) (pin 22))
      (node (ref U5) (pin 5))
      (node (ref U5) (pin 28))
      (node (ref L6) (pin 1))
      (node (ref U5) (pin 81))
      (node (ref C31) (pin 1))
      (node (ref C14) (pin 2))
      (node (ref U5) (pin 19))
      (node (ref U4) (pin 8))
      (node (ref R7) (pin 1))
      (node (ref U1) (pin 3))
      (node (ref U5) (pin 93))
      (node (ref C28) (pin 2))
      (node (ref R10) (pin 1))
      (node (ref R11) (pin 1))
      (node (ref C15) (pin 1))
      (node (ref C6) (pin 1))
      (node (ref C7) (pin 1))
      (node (ref L4) (pin 1))
      (node (ref C12) (pin 1))
      (node (ref C10) (pin 1))
      (node (ref C9) (pin 1))
      (node (ref J6) (pin 4)))
    (net (code 20) (name 57)
      (node (ref J6) (pin 5))
      (node (ref U5) (pin 57)))
    (net (code 21) (name 58)
      (node (ref U5) (pin 58))
      (node (ref J6) (pin 6)))
    (net (code 22) (name "Net-(J6-Pad7)")
      (node (ref J6) (pin 7)))
    (net (code 23) (name "Net-(J6-Pad8)")
      (node (ref J6) (pin 8)))
    (net (code 24) (name 74)
      (node (ref U5) (pin 74))
      (node (ref J6) (pin 9)))
    (net (code 25) (name 48)
      (node (ref J2) (pin 5))
      (node (ref U5) (pin 48)))
    (net (code 26) (name "Net-(J4-Pad1)")
      (node (ref J4) (pin 1)))
    (net (code 27) (name "Net-(D1-Pad1)")
      (node (ref D2) (pin 2))
      (node (ref D1) (pin 1))
      (node (ref J5) (pin 2)))
    (net (code 28) (name VREFP)
      (node (ref U5) (pin 9))
      (node (ref C2) (pin 1))
      (node (ref L4) (pin 2)))
    (net (code 29) (name 56)
      (node (ref J2) (pin 1))
      (node (ref U5) (pin 56)))
    (net (code 30) (name 52)
      (node (ref J2) (pin 10))
      (node (ref U5) (pin 52)))
    (net (code 31) (name 53)
      (node (ref U5) (pin 53))
      (node (ref J2) (pin 2)))
    (net (code 32) (name 46)
      (node (ref J2) (pin 3))
      (node (ref U5) (pin 46)))
    (net (code 33) (name 54)
      (node (ref J2) (pin 4))
      (node (ref U5) (pin 54)))
    (net (code 34) (name 95)
      (node (ref U5) (pin 95))
      (node (ref J4) (pin 3)))
    (net (code 35) (name 94)
      (node (ref U5) (pin 94))
      (node (ref J4) (pin 4)))
    (net (code 36) (name "Net-(J4-Pad2)")
      (node (ref L2) (pin 2))
      (node (ref J4) (pin 2)))
    (net (code 37) (name "Net-(C4-Pad1)")
      (node (ref L1) (pin 2))
      (node (ref C4) (pin 1))
      (node (ref J4) (pin 5)))
    (net (code 38) (name RXD0)
      (node (ref R2) (pin 1))
      (node (ref R1) (pin 2))
      (node (ref JP1) (pin 1))
      (node (ref U5) (pin 12)))
    (net (code 39) (name CAN_RX0)
      (node (ref U1) (pin 4))
      (node (ref U5) (pin 20)))
    (net (code 40) (name CAN_TX0)
      (node (ref U5) (pin 17))
      (node (ref U1) (pin 1)))
    (net (code 41) (name VDDOUT)
      (node (ref C1) (pin 1))
      (node (ref C18) (pin 1))
      (node (ref C20) (pin 1))
      (node (ref C21) (pin 1))
      (node (ref U5) (pin 4))
      (node (ref L5) (pin 1))
      (node (ref C5) (pin 1))
      (node (ref U5) (pin 39))
      (node (ref L3) (pin 1))
      (node (ref U5) (pin 18))
      (node (ref U5) (pin 76))
      (node (ref U5) (pin 22))
      (node (ref C22) (pin 1)))
    (net (code 42) (name 40)
      (node (ref J8) (pin 4))
      (node (ref U5) (pin 40)))
    (net (code 43) (name GNDA)
      (node (ref J8) (pin 13))
      (node (ref J8) (pin 17))
      (node (ref C25) (pin 2))
      (node (ref D5) (pin 1))
      (node (ref D4) (pin 1))
      (node (ref L8) (pin 2))
      (node (ref C27) (pin 2))
      (node (ref J8) (pin 10))
      (node (ref C23) (pin 2))
      (node (ref C26) (pin 2)))
    (net (code 44) (name +3.3VADC)
      (node (ref C23) (pin 1))
      (node (ref J8) (pin 9))
      (node (ref D4) (pin 3))
      (node (ref J8) (pin 14))
      (node (ref D5) (pin 3))
      (node (ref L6) (pin 2))
      (node (ref C27) (pin 1)))
    (net (code 45) (name "Net-(C13-Pad1)")
      (node (ref C13) (pin 1))
      (node (ref D2) (pin 1))
      (node (ref U3) (pin 3)))
    (net (code 46) (name "Net-(J8-Pad7)")
      (node (ref J8) (pin 7)))
    (net (code 47) (name 42)
      (node (ref J8) (pin 5))
      (node (ref U5) (pin 42)))
    (net (code 48) (name "Net-(J8-Pad6)")
      (node (ref J8) (pin 6)))
    (net (code 49) (name "Net-(J8-Pad8)")
      (node (ref J8) (pin 8)))
    (net (code 50) (name 96)
      (node (ref U5) (pin 96))
      (node (ref L5) (pin 2))
      (node (ref C8) (pin 1)))
    (net (code 51) (name VDDPLL)
      (node (ref L3) (pin 2))
      (node (ref U5) (pin 86))
      (node (ref C3) (pin 1)))
    (net (code 52) (name "Net-(C25-Pad1)")
      (node (ref C25) (pin 1))
      (node (ref J9) (pin 2))
      (node (ref R8) (pin 1)))
    (net (code 53) (name "Net-(J9-Pad3)")
      (node (ref J9) (pin 3)))
    (net (code 54) (name "Net-(C26-Pad1)")
      (node (ref R9) (pin 1))
      (node (ref J9) (pin 4))
      (node (ref C26) (pin 1)))
    (net (code 55) (name "Net-(J9-Pad1)")
      (node (ref J9) (pin 1))
      (node (ref L7) (pin 2)))
    (net (code 56) (name "Net-(C29-Pad2)")
      (node (ref C29) (pin 2))
      (node (ref J8) (pin 16)))
    (net (code 57) (name "Net-(C29-Pad1)")
      (node (ref J8) (pin 15))
      (node (ref C29) (pin 1)))
    (net (code 58) (name /ANP)
      (node (ref R8) (pin 2))
      (node (ref J8) (pin 12))
      (node (ref D4) (pin 2))
      (node (ref C24) (pin 2)))
    (net (code 59) (name /ANN)
      (node (ref C24) (pin 1))
      (node (ref D5) (pin 2))
      (node (ref R9) (pin 2))
      (node (ref J8) (pin 11)))
    (net (code 60) (name 44)
      (node (ref U5) (pin 44))
      (node (ref J8) (pin 18)))
    (net (code 61) (name 35)
      (node (ref U5) (pin 35))
      (node (ref J8) (pin 23)))
    (net (code 62) (name "Net-(C30-Pad1)")
      (node (ref J8) (pin 21))
      (node (ref C30) (pin 1)))
    (net (code 63) (name "Net-(D3-Pad1)")
      (node (ref J7) (pin 2))
      (node (ref R4) (pin 1))
      (node (ref D3) (pin 1))
      (node (ref U1) (pin 7)))
    (net (code 64) (name "Net-(JP3-Pad1)")
      (node (ref JP3) (pin 1))
      (node (ref R4) (pin 2)))
    (net (code 65) (name "Net-(D3-Pad2)")
      (node (ref JP3) (pin 2))
      (node (ref D3) (pin 2))
      (node (ref U1) (pin 6))
      (node (ref J7) (pin 1)))
    (net (code 66) (name "Net-(U1-Pad5)")
      (node (ref U1) (pin 5)))
    (net (code 67) (name "Net-(R5-Pad1)")
      (node (ref U3) (pin 1))
      (node (ref R6) (pin 2))
      (node (ref R5) (pin 1)))
    (net (code 68) (name "Net-(JP2-Pad2)")
      (node (ref JP2) (pin 2))
      (node (ref R3) (pin 1))
      (node (ref U1) (pin 8)))
    (net (code 69) (name CAN_CONF)
      (node (ref JP2) (pin 1))
      (node (ref U5) (pin 16)))
    (net (code 70) (name "Net-(JP4-Pad2)")
      (node (ref R7) (pin 2))
      (node (ref JP4) (pin 2))
      (node (ref U4) (pin 3)))
    (net (code 71) (name 64)
      (node (ref U4) (pin 5))
      (node (ref U5) (pin 64))
      (node (ref R10) (pin 2)))
    (net (code 72) (name 55)
      (node (ref U4) (pin 6))
      (node (ref R11) (pin 2))
      (node (ref U5) (pin 55)))
    (net (code 73) (name 99)
      (node (ref C32) (pin 2))
      (node (ref U5) (pin 99))
      (node (ref Y1) (pin 1)))
    (net (code 74) (name 98)
      (node (ref Y1) (pin 2))
      (node (ref U5) (pin 98))
      (node (ref C33) (pin 2)))
    (net (code 75) (name "Net-(U5-Pad89)")
      (node (ref U5) (pin 89)))
    (net (code 76) (name "Net-(U5-Pad84)")
      (node (ref U5) (pin 84)))
    (net (code 77) (name "Net-(U5-Pad85)")
      (node (ref U5) (pin 85)))
    (net (code 78) (name "Net-(U5-Pad88)")
      (node (ref U5) (pin 88)))
    (net (code 79) (name "Net-(U5-Pad91)")
      (node (ref U5) (pin 91)))
    (net (code 80) (name "Net-(U5-Pad92)")
      (node (ref U5) (pin 92)))
    (net (code 81) (name "Net-(U5-Pad90)")
      (node (ref U5) (pin 90)))
    (net (code 82) (name "Net-(U5-Pad66)")
      (node (ref U5) (pin 66)))
    (net (code 83) (name "Net-(U5-Pad25)")
      (node (ref U5) (pin 25)))
    (net (code 84) (name "Net-(U5-Pad27)")
      (node (ref U5) (pin 27)))
    (net (code 85) (name "Net-(U5-Pad34)")
      (node (ref U5) (pin 34)))
    (net (code 86) (name "Net-(U5-Pad33)")
      (node (ref U5) (pin 33)))
    (net (code 87) (name "Net-(U5-Pad2)")
      (node (ref U5) (pin 2)))
    (net (code 88) (name "Net-(U5-Pad23)")
      (node (ref U5) (pin 23)))
    (net (code 89) (name "Net-(U5-Pad1)")
      (node (ref U5) (pin 1)))
    (net (code 90) (name "Net-(U5-Pad24)")
      (node (ref U5) (pin 24)))
    (net (code 91) (name "Net-(U5-Pad15)")
      (node (ref U5) (pin 15)))
    (net (code 92) (name "Net-(U5-Pad14)")
      (node (ref U5) (pin 14)))
    (net (code 93) (name "Net-(U5-Pad13)")
      (node (ref U5) (pin 13)))
    (net (code 94) (name "Net-(U5-Pad21)")
      (node (ref U5) (pin 21)))
    (net (code 95) (name "Net-(U5-Pad30)")
      (node (ref U5) (pin 30)))
    (net (code 96) (name "Net-(U5-Pad73)")
      (node (ref U5) (pin 73)))
    (net (code 97) (name "Net-(U5-Pad32)")
      (node (ref U5) (pin 32)))
    (net (code 98) (name "Net-(U5-Pad26)")
      (node (ref U5) (pin 26)))
    (net (code 99) (name "Net-(U5-Pad31)")
      (node (ref U5) (pin 31)))
    (net (code 100) (name "Net-(U5-Pad38)")
      (node (ref U5) (pin 38)))
    (net (code 101) (name "Net-(U5-Pad65)")
      (node (ref U5) (pin 65)))
    (net (code 102) (name "Net-(U5-Pad62)")
      (node (ref U5) (pin 62)))
    (net (code 103) (name "Net-(U5-Pad59)")
      (node (ref U5) (pin 59)))
    (net (code 104) (name "Net-(U5-Pad37)")
      (node (ref U5) (pin 37)))
    (net (code 105) (name "Net-(U5-Pad36)")
      (node (ref U5) (pin 36)))
    (net (code 106) (name "Net-(U5-Pad82)")
      (node (ref U5) (pin 82)))
    (net (code 107) (name "Net-(U5-Pad83)")
      (node (ref U5) (pin 83)))
    (net (code 108) (name "Net-(U5-Pad77)")
      (node (ref U5) (pin 77)))
    (net (code 109) (name "Net-(U5-Pad61)")
      (node (ref U5) (pin 61)))
    (net (code 110) (name "Net-(U5-Pad100)")
      (node (ref U5) (pin 100)))
    (net (code 111) (name "Net-(U5-Pad97)")
      (node (ref U5) (pin 97)))
    (net (code 112) (name "Net-(U5-Pad60)")
      (node (ref U5) (pin 60)))
    (net (code 113) (name 43)
      (node (ref J8) (pin 1))
      (node (ref U5) (pin 43)))
    (net (code 114) (name 45)
      (node (ref J8) (pin 2))
      (node (ref U5) (pin 45)))
    (net (code 115) (name 41)
      (node (ref J8) (pin 24))
      (node (ref U5) (pin 41)))))